{
  "tracks": {
    "href": "https://api.spotify.com/v1/search?query=hello&type=track&locale=*&offset=0&limit=1",
    "items": [
      {
        "album": {
          "album_type": "single",
          "artists": [
            {
              "external_urls": {
                "spotify": "https://open.spotify.com/artist/77iJZVsrGYYZqnCtEsYBLi"
                
              },
              "href": "https://api.spotify.com/v1/artists/77iJZVsrGYYZqnCtEsYBLi",
              "id": "77iJZVsrGYYZqnCtEsYBLi",
              "name": "Martin Solveig & Dragonette",
              "type": "artist",
              "uri": "spotify:artist:77iJZVsrGYYZqnCtEsYBLi"
            }
          ],
          "available_markets": [
            "CA",
            "MX",
            "US"
          ],
          "external_urls": {
            "spotify": "https://open.spotify.com/album/1Jbwq1BswM8apm7pjRZKq8"
          },
          "href": "https://api.spotify.com/v1/albums/1Jbwq1BswM8apm7pjRZKq8",
          "id": "1Jbwq1BswM8apm7pjRZKq8",
          "images": [
            {
              "height": 640,
              "url": "https://i.scdn.co/image/ab67616d0000b2732ab64fd86c12f2ba7df9c446",
              "width": 640
            },
            {
              "height": 300,
              "url": "https://i.scdn.co/image/ab67616d00001e022ab64fd86c12f2ba7df9c446",
              "width": 300
            },
            {
              "height": 64,
              "url": "https://i.scdn.co/image/ab67616d000048512ab64fd86c12f2ba7df9c446",
              "width": 64
            }
          ],
          "name": "Hello",
          "release_date": "2010-12-14",
          "release_date_precision": "day",
          "total_tracks": 7,
          "type": "album",
          "uri": "spotify:album:1Jbwq1BswM8apm7pjRZKq8"
        },
        "artists": [
          {
            "external_urls": {
              "spotify": "https://open.spotify.com/artist/1bj5GrcLom5gZFF5t949Xl"
            },
            "href": "https://api.spotify.com/v1/artists/1bj5GrcLom5gZFF5t949Xl",
            "id": "1bj5GrcLom5gZFF5t949Xl",
            "name": "Martin Solveig",
            "type": "artist",
            "uri": "spotify:artist:1bj5GrcLom5gZFF5t949Xl"
          },
          {
            "external_urls": {
              "spotify": "https://open.spotify.com/artist/4GLJPBj5Cdr9AgLKvLWM4n"
            },
            "href": "https://api.spotify.com/v1/artists/4GLJPBj5Cdr9AgLKvLWM4n",
            "id": "4GLJPBj5Cdr9AgLKvLWM4n",
            "name": "Dragonette",
            "type": "artist",
            "uri": "spotify:artist:4GLJPBj5Cdr9AgLKvLWM4n"
          }
        ],
        "available_markets": [
          "CA",
          "MX",
          "US"
        ],
        "disc_number": 1,
        "duration_ms": 191387,
        "explicit": false,
        "external_ids": {
          "isrc": "FR2PA1000030"
        },
        "external_urls": {
          "spotify": "https://open.spotify.com/track/3sl4dcqSwxHVnLfqwF2jly"
        },
        "href": "https://api.spotify.com/v1/tracks/3sl4dcqSwxHVnLfqwF2jly",
        "id": "3sl4dcqSwxHVnLfqwF2jly",
        "is_local": false,
        "name": "Hello (feat. Dragonette)",
        "popularity": 64,
        "preview_url": "https://p.scdn.co/mp3-preview/9955a68ff20318295b1c59e9fa57e85b5e46f5b5?cid=7af12a90abb344b38605570195a5273c",
        "track_number": 1,
        "type": "track",
        "uri": "spotify:track:3sl4dcqSwxHVnLfqwF2jly"
      }
    ],
    "limit": 1,
    "next": "https://api.spotify.com/v1/search?query=hello&type=track&locale=*&offset=1&limit=1",
    "offset": 0,
    "previous": null,
    "total": 30
  }
}
